{
  "project_info": {
    "project_number": "402503658071",
    "firebase_url": "https://moodindia-155414.firebaseio.com",
    "project_id": "moodindia-155414",
    "storage_bucket": "moodindia-155414.appspot.com"
  },
  "client": [
    {
      "client_info": {
        "mobilesdk_app_id": "1:402503658071:android:169167dc35f073d2",
        "android_client_info": {
          "package_name": "com.app.moodindia"
        }
      },
      "oauth_client": [
        {
          "client_id": "402503658071-jqcrnvl05n845qkoeplkkg30adruoja3.apps.googleusercontent.com",
          "client_type": 1,
          "android_info": {
            "package_name": "com.app.moodindia",
            "certificate_hash": "c7cf98cdb8b02a578349886ead0115bf1ad1b2d1"
          }
        },
        {
          "client_id": "402503658071-gn5ncm6aeo02ksbfaees2029d67bdhst.apps.googleusercontent.com",
          "client_type": 1,
          "android_info": {
            "package_name": "com.app.moodindia",
            "certificate_hash": "8bd6dd71b54cd08326ec0ce30756e5f42ddc6155"
          }
        },
        {
          "client_id": "402503658071-o3dgm83isssd4s1gdb734pdfevp5n57n.apps.googleusercontent.com",
          "client_type": 1,
          "android_info": {
            "package_name": "com.app.moodindia",
            "certificate_hash": "c57f955f2a39cbf99048042e68a88d1a348e905a"
          }
        },
        {
          "client_id": "402503658071-vois3814si979l367rf58t3ok7rdd4q6.apps.googleusercontent.com",
          "client_type": 1,
          "android_info": {
            "package_name": "com.app.moodindia",
            "certificate_hash": "5299d4956cfafce685b3d1031773d5abd646c273"
          }
        },
        {
          "client_id": "402503658071-592e6mu9usiulnplgve9q28eb7pum54f.apps.googleusercontent.com",
          "client_type": 3
        }
      ],
      "api_key": [
        {
          "current_key": "AIzaSyB9DjC5snHP8xV8mdNyfrPlw6AE36guBiE"
        }
      ],
      "services": {
        "analytics_service": {
          "status": 1
        },
        "appinvite_service": {
          "status": 2,
          "other_platform_oauth_client": [
            {
              "client_id": "402503658071-592e6mu9usiulnplgve9q28eb7pum54f.apps.googleusercontent.com",
              "client_type": 3
            },
            {
              "client_id": "402503658071-02rj9hj35am0r6352eab43glhjvu83ss.apps.googleusercontent.com",
              "client_type": 2,
              "ios_info": {
                "bundle_id": "com.almum.moodindia"
              }
            }
          ]
        },
        "ads_service": {
          "status": 2
        }
      }
    }
  ],
  "configuration_version": "1"
}